From Uncertainty to Precision: Enhancing Binary Classifier Performance through Calibration - 1 Calibration
…
Later on, we can compute the mean observed events in the neighborhood of multiple values between 0 and 1:

linspace <- seq(0, 1, length.out = 100)

map(
  .x = linspace,
  .f = ~local_ci_scores(
    obs = data_alphas[[which(alphas == 1)]]$d,
    scores = data_alphas[[which(alphas == 1)]]$p_u,
    tau = .x, 
    nn = .15, prob = .5, method = "probit")
) |> 
  bind_rows()

# A tibble: 100 × 4
     xlim  mean lower upper
    <dbl> <dbl> <dbl> <dbl>
 1 0      0.327 0.309 0.345
 2 0.0101 0.327 0.309 0.345
 3 0.0202 0.327 0.309 0.345
 4 0.0303 0.327 0.309 0.345
 5 0.0404 0.327 0.309 0.345
 6 0.0505 0.327 0.309 0.345
 7 0.0606 0.327 0.309 0.345
 8 0.0707 0.327 0.309 0.345
 9 0.0808 0.327 0.309 0.345
10 0.0909 0.327 0.309 0.345
# ℹ 90 more rows
…
