From Uncertainty to Precision: Enhancing Binary Classifier Performance through Calibration - 2 Recalibration
…
We simulate a single toy dataset to begin with. Simulations made on replications will be done later.

Let us consider a case where the probabilities are distorted using \(\alpha=.25\).

n_obs <- 2000
toy_data <- get_samples(seed = 1, n_obs = 2000, alpha = .25, gamma = 1)
toy_data$data_all

# A tibble: 2,000 × 7
       p   p_u     d     x1     x2     x3     x4
   <dbl> <dbl> <int>  <dbl>  <dbl>  <dbl>  <dbl>
 1 0.366 0.778     0 0.266  0.872  0.188  0.770 
 2 0.613 0.885     1 0.372  0.967  0.505  0.690 
 3 0.561 0.865     1 0.573  0.867  0.0273 0.650 
 4 0.343 0.765     1 0.908  0.438  0.496  0.0747
 5 0.293 0.736     0 0.202  0.192  0.947  0.903 
 6 0.569 0.869     0 0.898  0.0823 0.381  0.133 
 7 0.345 0.766     0 0.945  0.583  0.698  0.211 
 8 0.705 0.916     0 0.661  0.0704 0.689  0.155 
 9 0.726 0.923     1 0.629  0.528  0.478  0.0545
10 0.673 0.906     1 0.0618 0.472  0.273  0.715 
# ℹ 1,990 more rows

We extract the calib/test datasets with true probabilities:

data_all_calib <- toy_data$data_all |>
    slice(toy_data$calib_index)
data_all_calib

# A tibble: 1,200 × 7
       p   p_u     d     x1      x2    x3     x4
   <dbl> <dbl> <int>  <dbl>   <dbl> <dbl>  <dbl>
 1 0.670 0.905     0 0.262  0.155   0.818 0.0906
 2 0.650 0.898     1 0.975  0.683   0.697 0.367 
 3 0.413 0.802     0 0.229  0.687   0.554 0.734 
 4 0.750 0.930     1 0.0438 0.0907  0.816 0.0173
 5 0.304 0.742     0 0.0275 0.591   0.239 0.872 
 6 0.652 0.899     0 0.753  0.121   0.953 0.704 
 7 0.309 0.746     0 0.0747 0.922   0.557 0.408 
 8 0.355 0.772     0 0.914  0.493   0.205 0.175 
 9 0.555 0.863     0 0.513  0.00726 0.963 0.333 
10 0.425 0.807     0 0.386  0.802   0.313 0.571 
# ℹ 1,190 more rows

data_all_test <- toy_data$data_all |>
    slice(-toy_data$calib_index)
data_all_test

# A tibble: 800 × 7
       p   p_u     d    x1     x2      x3      x4
   <dbl> <dbl> <int> <dbl>  <dbl>   <dbl>   <dbl>
 1 0.613 0.885     1 0.372 0.967  0.505   0.690  
 2 0.498 0.840     1 0.498 0.396  0.566   0.973  
 3 0.402 0.796     1 0.718 0.106  0.0169  0.970  
 4 0.302 0.741     1 0.126 0.0102 0.554   0.507  
 5 0.684 0.909     0 0.382 0.0704 0.869   0.478  
 6 0.457 0.822     1 0.340 0.413  0.822   0.914  
 7 0.566 0.867     0 0.600 0.0802 0.983   0.377  
 8 0.760 0.934     1 0.494 0.277  0.266   0.231  
 9 0.444 0.816     1 0.827 0.0911 0.191   0.00274
10 0.637 0.894     1 0.668 0.277  0.00375 0.653  
# ℹ 790 more rows
…
score_c_platt_linspace <- predict(
  lr, 
  newdata = tibble(p_u = linspace), 
  type = "response"
)

Let us put these values in a tibble:

tb_scores_c_platt <- tibble(
  linspace = linspace,
  p_c = score_c_platt_linspace #recalibrated score
)
tb_scores_c_platt

# A tibble: 100 × 2
   linspace       p_c
      <dbl>     <dbl>
 1   0      0.0000729
 2   0.0101 0.0000817
 3   0.0202 0.0000917
 4   0.0303 0.000103 
 5   0.0404 0.000115 
 6   0.0505 0.000129 
 7   0.0606 0.000145 
 8   0.0707 0.000163 
 9   0.0808 0.000183 
10   0.0909 0.000205 
# ℹ 90 more rows
…
