From Uncertainty to Precision: Enhancing Binary Classifier Performance through Calibration - 6 Grid Search
…
We conduct a grid search to find the set of hyperparameters that optimize a criterion:

the out-of-bag mean squared error (MSE) for the regressor

the error rate for the classifier.

grid_params <- 
  expand_grid(
    num_trees = c(100,300, 500),
    mtry = seq(1,(ncol(tb_train)/2)),
    nodesize = c(5, 10, 15, 20)
  )
grid_params

# A tibble: 144 × 3
   num_trees  mtry nodesize
       <dbl> <int>    <dbl>
 1       100     1        5
 2       100     1       10
 3       100     1       15
 4       100     1       20
 5       100     2        5
 6       100     2       10
 7       100     2       15
 8       100     2       20
 9       100     3        5
10       100     3       10
# ℹ 134 more rows
…
