5 Recalibration of Random Forests – From Uncertainty to Precision: Enhancing Binary Classifier Performance through Calibration
…
score_c_platt_linspace <- predict(
  lr, 
  newdata = tibble(scores = linspace), 
  type = "response"
)

Let us put these values in a tibble:

tb_scores_c_platt <- tibble(
  linspace = linspace,
  scores_c = score_c_platt_linspace #recalibrated score
)
tb_scores_c_platt

# A tibble: 101 × 2
   linspace scores_c
      <dbl>    <dbl>
 1     0       0.621
 2     0.01    0.620
 3     0.02    0.618
 4     0.03    0.617
 5     0.04    0.615
 6     0.05    0.613
 7     0.06    0.612
 8     0.07    0.610
 9     0.08    0.609
10     0.09    0.607
# ℹ 91 more rows
…
