From Uncertainty to Precision: Enhancing Binary Classifier Performance through Calibration - 8 Simulation Metrics and Viz
…
    method = factor(
      method,
      levels = c("No Calibration", "platt", "isotonic", "beta", 
                 "locfit_0", "locfit_1", "locfit_2") |> rev(),
      labels = c("No Calibration", "Platt Scaling", "Isotonic", "Beta", 
                 "Locfit (deg=0)", "Locfit (deg=1)", "Locfit (deg=2)") |> rev()
    ),
    sample = factor(
      sample,
      levels = c("calibration", "test") |> rev(),
      labels = c("Calibration", "Test") |> rev())
  )
metrics_rf

# A tibble: 5,600 × 17
   sample  model mse   accuracy missclass_rate sensitivity specificity threshold
   <fct>   <fct> <lgl>    <dbl>          <dbl>       <dbl>       <dbl>     <dbl>
 1 Calibr… Regr… NA       0.852          0.148       0.758       0.923       0.5
 2 Test    Regr… NA       0.852          0.148       0.755       0.923       0.5
 3 Calibr… Regr… NA       0.860          0.140       0.804       0.902       0.5
 4 Calibr… Regr… NA       0.861          0.139       0.812       0.897       0.5
 5 Calibr… Regr… NA       0.860          0.140       0.825       0.887       0.5
 6 Calibr… Regr… NA       0.860          0.140       0.813       0.895       0.5
 7 Calibr… Regr… NA       0.860          0.140       0.822       0.890       0.5
 8 Calibr… Regr… NA       0.860          0.140       0.818       0.892       0.5
 9 Test    Regr… NA       0.857          0.143       0.794       0.903       0.5
10 Test    Regr… NA       0.858          0.142       0.803       0.899       0.5
# ℹ 5,590 more rows
# ℹ 9 more variables: FPR <dbl>, AUC <dbl>, locfit_score <dbl>, brier <dbl>,
#   ece <dbl>, qmse <dbl>, wmse <dbl>, seed <int>, method <fct>
…
